Halo    1451 particles: 233450
Subhalo 4220 particles: 6550
----------------------
Total particles in halos:         233450 ratio: 0.972708333
Total particles in subhalos:        6550 ratio: 0.027291667
Total particles in no halos:           0 ratio: 0.000000000
Total particles:                  240000
