Dice parallel timing 
 	 89.31 		 357.2  	 576484 	 300896 
 	 89.17 		 356.67  	 578012 	 300896 
 	 89.50 		 357.99  	 578824 	 300896 
 	 89.44 		 357.77  	 576860 	 300896 
 	 89.52 		 358.07  	 578516 	 300896 
 	 89.20 		 356.78  	 576872 	 300896 
 	 90.33 		 361.3  	 575436 	 300896 
 	 88.60 		 354.39  	 574928 	 300896 
 	 89.20 		 356.79  	 577180 	 300896 
 	 89.22 		 356.88  	 576628 	 300896 
-------------------------------------------

Max values:
   wall time (s)    CPU time (s)    max mem (Mb)  output written
           90.33          361.30          565.26        300896.0
