Dice parallel timing 
 	 12.06 		 48.19  	 584284 	 68312 
 	 12.02 		 48.04  	 584820 	 68312 
 	 12.00 		 47.98  	 586040 	 68312 
 	 12.01 		 48.02  	 586284 	 68312 
 	 12.08 		 48.3  	 586252 	 68312 
 	 12.02 		 48.06  	 585992 	 68312 
 	 12.02 		 48.05  	 584736 	 68312 
 	 12.01 		 48.01  	 584952 	 68312 
 	 12.07 		 48.24  	 586248 	 68312 
 	 12.03 		 48.09  	 584476 	 68312 
-------------------------------------------

Max values:
   wall time (s)    CPU time (s)    max mem (Mb)  output written
           12.08           48.30          572.54         68312.0
