            distance     cumulative mass
      0.00000000E+00      0.00000000E+00
      0.89559836E+00      0.50000002E-02
      0.16426935E+01      0.65000003E-01
      0.30130046E+01      0.32000002E+00
      0.55264089E+01      0.18600001E+01
      0.10136458E+02      0.11810001E+02
      0.18592147E+02      0.38610002E+02
      0.34101437E+02      0.82650004E+02
      0.62548367E+02      0.15557501E+03
      0.11472528E+03      0.23812501E+03
      0.21042746E+03      0.26197001E+03
