            distance           potential
      0.00000000E+00     -0.84360994E+01
      0.89559836E+00     -0.84333080E+01
      0.16426935E+01     -0.84219814E+01
      0.30130046E+01     -0.83813262E+01
      0.55264089E+01     -0.82604934E+01
      0.10136458E+02     -0.78551710E+01
      0.18592147E+02     -0.68969789E+01
      0.34101437E+02     -0.54796729E+01
      0.62548367E+02     -0.39031801E+01
      0.11472528E+03     -0.23937636E+01
      0.21042746E+03     -0.12449421E+01
