            distance           potential
      0.00000000E+00     -0.81583414E+01
      0.55126281E+00     -0.81583414E+01
      0.62236812E+00     -0.81583414E+01
      0.70264504E+00     -0.81579349E+01
      0.79327658E+00     -0.81571159E+01
      0.89559836E+00     -0.81563905E+01
      0.10111182E+01     -0.81557480E+01
      0.11415385E+01     -0.81546784E+01
      0.12887813E+01     -0.81527229E+01
      0.14550164E+01     -0.81497051E+01
      0.16426935E+01     -0.81454501E+01
      0.18545783E+01     -0.81405880E+01
      0.20937933E+01     -0.81351152E+01
      0.23638637E+01     -0.81282561E+01
      0.26687698E+01     -0.81190264E+01
      0.30130046E+01     -0.81071596E+01
      0.34016403E+01     -0.80922493E+01
      0.38404053E+01     -0.80736289E+01
      0.43357650E+01     -0.80500353E+01
      0.48950185E+01     -0.80194280E+01
      0.55264089E+01     -0.79820198E+01
      0.62392388E+01     -0.79356390E+01
      0.70440152E+01     -0.78757483E+01
      0.79525967E+01     -0.77995010E+01
      0.89783712E+01     -0.77024902E+01
      0.10136458E+02     -0.75774989E+01
      0.11443920E+02     -0.74216919E+01
      0.12920032E+02     -0.72372624E+01
      0.14586536E+02     -0.70286297E+01
      0.16467997E+02     -0.68004369E+01
      0.18592147E+02     -0.65557611E+01
      0.20990275E+02     -0.62974575E+01
      0.23697729E+02     -0.60280784E+01
      0.26754416E+02     -0.57499278E+01
      0.30205364E+02     -0.54645103E+01
      0.34101437E+02     -0.51727772E+01
      0.38500062E+02     -0.48768534E+01
      0.43466035E+02     -0.45778977E+01
      0.49072550E+02     -0.42749305E+01
      0.55402227E+02     -0.39692024E+01
      0.62548367E+02     -0.36647379E+01
      0.70616237E+02     -0.33651710E+01
      0.79724751E+02     -0.30730164E+01
      0.90008169E+02     -0.27905665E+01
      0.10161797E+03     -0.25190498E+01
      0.11472528E+03     -0.22596147E+01
      0.12952329E+03     -0.20159329E+01
      0.14623000E+03     -0.17918237E+01
      0.16509163E+03     -0.15886490E+01
      0.18638623E+03     -0.14066485E+01
      0.21042746E+03     -0.12449421E+01
