


TABLE: || phi[bins] - phi[10'000]|| / || phi[10'000] ||

L2 norm:   [ sum (phi[bins][i] - phi[10000][i])^2 ] ^ 1/2
L_inf norm: max{abs(phi[bins][i] - phi[10000][i])^2)} 

Bins             &    L$_2$ Log        &    L$_\infty$ Log   &    L$_2$ Lin        &    L$_\infty$ Lin  \\
            10   &            0.1515   &            0.0678   &            0.0845   &            0.0816  \\
            20   &            0.0519   &            0.0164   &            0.0117   &            0.0066  \\
            50   &            0.0127   &            0.0025   &            0.0045   &            0.0025  \\
           100   &            0.0053   &            0.0007   &            0.0016   &            0.0008  \\
           500   &            0.0005   &            0.0000   &            0.0004   &            0.0002  \\
          1000   &            0.0002   &            0.0000   &            0.0006   &            0.0002  \\
         10000   &            0.0000   &            0.0000   &            0.0000   &            0.0000  \\
