            distance           potential
      0.00000000E+00     -0.80941950E+01
      0.10521373E+02     -0.74737911E+01
      0.21042746E+02     -0.63088409E+01
      0.31564120E+02     -0.53649487E+01
      0.42085493E+02     -0.46574800E+01
      0.52606866E+02     -0.40975555E+01
      0.63128239E+02     -0.36386488E+01
      0.73649612E+02     -0.32591495E+01
      0.84170985E+02     -0.29414258E+01
      0.94692359E+02     -0.26717407E+01
      0.10521373E+03     -0.24395424E+01
      0.11573510E+03     -0.22377786E+01
      0.12625648E+03     -0.20623218E+01
      0.13677785E+03     -0.19097321E+01
      0.14729922E+03     -0.17764611E+01
      0.15782060E+03     -0.16594787E+01
      0.16834197E+03     -0.15562940E+01
      0.17886334E+03     -0.14648682E+01
      0.18938472E+03     -0.13834475E+01
      0.19990609E+03     -0.13105496E+01
      0.21042746E+03     -0.12449421E+01
