            distance     cumulative mass
      0.00000000E+00      0.00000000E+00
      0.21042746E+02      0.45835002E+02
      0.42085493E+02      0.10374000E+03
      0.63128239E+02      0.15689001E+03
      0.84170985E+02      0.19572001E+03
      0.10521373E+03      0.22693001E+03
      0.12625648E+03      0.24706501E+03
      0.14729922E+03      0.25660501E+03
      0.16834197E+03      0.26083001E+03
      0.18938472E+03      0.26190001E+03
      0.21042746E+03      0.26197001E+03
